…
```
accounts %>%
  # missing_inv: Is inv_amount missing?
  mutate(missing_inv = is.na(inv_amount)) %>%
  # Group by missing_inv
  group_by(missing_inv) %>%
  # Calculate mean age for each missing_inv group
  summarize(avg_age = mean(age))
```
```
# A tibble: 97 x 8
# Groups:   missing_inv [2]
   cust_id   age acct_amount inv_amount account_opened last_transaction
   <fct>   <int>       <dbl>      <dbl> <fct>          <fct>           
 1 8C3554~    54      44245.     35500. 03-05-18       30-09-19        
 2 D55366~    36      86507.     81922. 21-01-18       14-01-19        
 3 A63198~    49      77799.     46412. 26-01-18       06-10-19        
 4 93F2F9~    56      93875.     76563. 21-08-17       10-07-19        
 5 DE0A08~    21      99998.        NA  05-06-17       15-01-19        
 6 25E68E~    47     109738.     93553. 26-12-17       12-11-18        
 7 3FA929~    53      79744.     70358. 21-06-18       24-08-18        
 8 984403~    29      17940.     14430. 07-10-17       18-05-18        
 9 870A92~    58      63523.     51297. 02-09-18       22-02-19        
10 166B05~    53      38175.     15053. 28-02-19       31-10-18        
# ... with 87 more rows, and 2 more variables: missing_inv <lgl>, avg_age <dbl>
```
…
