…
```
~.x %in% c("N/A", "missing", "na", " ")
```

Replaces all cases that have `"N/A"`, `"missing"`, `"na"`, or `" "`

```
# Use `replace_with_na_at()` to replace with NA
replace_with_na_at(pacman,
                   .vars = c("year", "month", "day"), 
                   ~.x %in% c("N/A", "missing", "na", " "))
```
```
# A tibble: 2,000 x 6
   year  month day   initial score   country
   <chr> <chr> <chr> <chr>   <chr>   <chr>  
 1 2007  10    27    LEX     2065812 "CA"   
 2 1995  8     23    PNY     1163465 "JP"   
 3 1980  2     8     MBJ     175380  " "    
 4 1982  5     9     QRC     2025632 "ES"   
 5 <NA>  <NA>  <NA>  YPZ     925357  "NZ"   
 6 2013  11    15    RVJ     319733  "AU"   
 7 2003  12    4     VKD     3322668 "US"   
 8 2016  9     9     ZIS     2137806 "CN"   
 9 2013  3     20    IYD     3059716 "CN"   
10 1993  5     19    CHQ     231892  "AU"   
# ... with 1,990 more rows
```
```
# Use `replace_with_na_if()` to replace with NA the character values using `is.character`
replace_with_na_if(pacman,
                   .predicate = is.character, 
                   ~.x %in% c("N/A", "missing", "na", " "))
```
```
# A tibble: 2,000 x 6
   year  month day   initial score   country
   <chr> <chr> <chr> <chr>   <chr>   <chr>  
 1 2007  10    27    LEX     2065812 CA     
 2 1995  8     23    PNY     1163465 JP     
 3 1980  2     8     MBJ     175380  <NA>   
 4 1982  5     9     QRC     2025632 ES     
 5 <NA>  <NA>  <NA>  YPZ     925357  NZ     
 6 2013  11    15    RVJ     319733  AU     
 7 2003  12    4     VKD     3322668 US     
 8 2016  9     9     ZIS     2137806 CN     
 9 2013  3     20    IYD     3059716 CN     
10 1993  5     19    CHQ     231892  AU     
# ... with 1,990 more rows
```
```
# Use `replace_with_na_all()` to replace with NA
replace_with_na_all(pacman, ~.x %in% c("N/A", "missing", "na", " "))
```
```
# A tibble: 2,000 x 6
   year  month day   initial score   country
   <chr> <chr> <chr> <chr>   <chr>   <chr>  
 1 2007  10    27    LEX     2065812 CA     
 2 1995  8     23    PNY     1163465 JP     
 3 1980  2     8     MBJ     175380  <NA>   
 4 1982  5     9     QRC     2025632 ES     
 5 <NA>  <NA>  <NA>  YPZ     925357  NZ     
 6 2013  11    15    RVJ     319733  AU     
 7 2003  12    4     VKD     3322668 US     
 8 2016  9     9     ZIS     2137806 CN     
 9 2013  3     20    IYD     3059716 CN     
10 1993  5     19    CHQ     231892  AU     
# ... with 1,990 more rows
```
…
