…
2 College Student          447. 5891.    424
3 Grad Student             430. 4029.    410
4 MA                       427. 4928.    410
5 PhD                      431. 7794.    407
```
```
# Mean, var, and median of Math score by both
nyc_scores %>%
    group_by(Borough, Teacher_Education_Level) %>% 
    summarize(mean = mean(Average_Score_SAT_Math, na.rm = TRUE),
        var = var(Average_Score_SAT_Math, na.rm = TRUE),
        median = median(Average_Score_SAT_Math, na.rm = TRUE))
```
```
# A tibble: 23 x 5
# Groups:   Borough [5]
   Borough  Teacher_Education_Level  mean   var median
   <fct>    <chr>                   <dbl> <dbl>  <dbl>
 1 Bronx    BA                       416. 4920.    393
 2 Bronx    College Student          409. 4569.    395
 3 Bronx    Grad Student             398.  674.    396
 4 Bronx    MA                       396. 1296.    394
 5 Bronx    PhD                      402.  819.    399
 6 Brooklyn BA                       419. 5892.    392
 7 Brooklyn College Student          403. 2619.    395
 8 Brooklyn Grad Student             417. 4543.    394
 9 Brooklyn MA                       424. 3207.    406
10 Brooklyn PhD                      415. 2386.    397
# ... with 13 more rows
```
…
There are 60 missing scores in each subject. Though there are many R packages which help with more advanced forms of imputation, such as `MICE`, `Amelia`, and `mi`, we will continue to use `simputation` and `impute_median()`.

Create a new dataset, nyc_scores_2 by imputing Math score by Borough, but note that `impute_median()` returns the imputed variable as type "impute". You'll convert the variable to the numeric in a separate step.

`simputation` and `dplyr` are loaded.

```
# Load naniar
library(naniar)

# Examine missingness with miss_var_summary()
nyc_scores %>% miss_var_summary()
```
```
# A tibble: 22 x 3
   variable                  n_miss pct_miss
   <chr>                      <int>    <dbl>
 1 Average_Score_SAT_Math        60    13.8 
 2 Average_Score_SAT_Reading     60    13.8 
 3 Average_Score_SAT_Writing     60    13.8 
 4 Percent_Tested                49    11.3 
 5 Student_Enrollment             7     1.61
 6 Percent_White                  7     1.61
 7 Percent_Black                  7     1.61
 8 Percent_Hispanic               7     1.61
 9 Percent_Asian                  7     1.61
10 School_ID                      0     0   
# ... with 12 more rows
```
…
