Exploratory Data Analysis in R
…
Contingency table review

In this chapter youll continue working with the comics dataset introduced in the video. This is a collection of characteristics on all of the superheroes created by Marvel and DC comics in the last 80 years.

Lets start by creating a contingency table, which is a useful way to represent the total counts of observations that fall into each combination of the levels of categorical variables.

library(readr)
comics <- read_csv("_data/comics.csv", col_types = "ffffffffiff")

# Print the first rows of the data
comics

## # A tibble: 23,272 x 11
##    name  id    align eye   hair  gender gsm   alive appearances first_appear
##    <fct> <fct> <fct> <fct> <fct> <fct>  <fct> <fct>       <int> <fct>       
##  1 "Spi~ Secr~ Good  Haze~ Brow~ Male   <NA>  Livi~        4043 Aug-62      
##  2 "Cap~ Publ~ Good  Blue~ Whit~ Male   <NA>  Livi~        3360 Mar-41      
##  3 "Wol~ Publ~ Neut~ Blue~ Blac~ Male   <NA>  Livi~        3061 Oct-74      
##  4 "Iro~ Publ~ Good  Blue~ Blac~ Male   <NA>  Livi~        2961 Mar-63      
##  5 "Tho~ No D~ Good  Blue~ Blon~ Male   <NA>  Livi~        2258 Nov-50      
##  6 "Ben~ Publ~ Good  Blue~ No H~ Male   <NA>  Livi~        2255 Nov-61      
##  7 "Ree~ Publ~ Good  Brow~ Brow~ Male   <NA>  Livi~        2072 Nov-61      
##  8 "Hul~ Publ~ Good  Brow~ Brow~ Male   <NA>  Livi~        2017 May-62      
##  9 "Sco~ Publ~ Neut~ Brow~ Brow~ Male   <NA>  Livi~        1955 Sep-63      
## 10 "Jon~ Publ~ Good  Blue~ Blon~ Male   <NA>  Livi~        1934 Nov-61      
## # ... with 23,262 more rows, and 1 more variable: publisher <fct>
…
# Remove align level
comics_filtered <- comics %>%
  filter(align != "Reformed Criminals") %>%
  droplevels()

# See the result
comics_filtered

## # A tibble: 19,856 x 11
##    name  id    align eye   hair  gender gsm   alive appearances first_appear
##    <fct> <fct> <fct> <fct> <fct> <fct>  <fct> <fct>       <int> <fct>       
##  1 "Spi~ Secr~ Good  Haze~ Brow~ Male   <NA>  Livi~        4043 Aug-62      
##  2 "Cap~ Publ~ Good  Blue~ Whit~ Male   <NA>  Livi~        3360 Mar-41      
##  3 "Wol~ Publ~ Neut~ Blue~ Blac~ Male   <NA>  Livi~        3061 Oct-74      
##  4 "Iro~ Publ~ Good  Blue~ Blac~ Male   <NA>  Livi~        2961 Mar-63      
##  5 "Tho~ No D~ Good  Blue~ Blon~ Male   <NA>  Livi~        2258 Nov-50      
##  6 "Ben~ Publ~ Good  Blue~ No H~ Male   <NA>  Livi~        2255 Nov-61      
##  7 "Ree~ Publ~ Good  Brow~ Brow~ Male   <NA>  Livi~        2072 Nov-61      
##  8 "Hul~ Publ~ Good  Brow~ Brow~ Male   <NA>  Livi~        2017 May-62      
##  9 "Sco~ Publ~ Neut~ Brow~ Brow~ Male   <NA>  Livi~        1955 Sep-63      
## 10 "Jon~ Publ~ Good  Blue~ Blon~ Male   <NA>  Livi~        1934 Nov-61      
## # ... with 19,846 more rows, and 1 more variable: publisher <fct>
…
