…
# Create single bootstrap data set
boot1 <- gss2016 %>%
  # Specify the response
  specify(response = consci, success = "High") %>%
  # Generate one bootstrap replicate
  generate(reps = 1, type = "bootstrap")

# See the result
boot1
```
```
Response: consci (factor)
# A tibble: 150 x 2
# Groups:   replicate [1]
   replicate consci
       <int> <fct> 
 1         1 High  
 2         1 Low   
 3         1 Low   
 4         1 High  
 5         1 Low   
 6         1 Low   
 7         1 Low   
 8         1 High  
 9         1 High  
10         1 Low   
# ... with 140 more rows
```
…
```r
# Create bootstrap distribution for proportion with High conf
boot_dist <- gss2016 %>%
  # Specify the response and success
  specify(response = consci, success = "High") %>%
  # Generate 500 bootstrap reps
  generate(reps = 500, type = "bootstrap") %>%
  # Calculate proportions
  calculate(stat = "prop")

# See the result
boot_dist
```
```
# A tibble: 500 x 2
   replicate  stat
       <int> <dbl>
 1         1 0.373
 2         2 0.36 
 3         3 0.473
 4         4 0.42 
 5         5 0.393
 6         6 0.42 
 7         7 0.44 
 8         8 0.447
 9         9 0.493
10        10 0.367
# ... with 490 more rows
```
…
# See the result
sim1
```
```
Response: postlife (factor)
Null Hypothesis: point
# A tibble: 150 x 2
# Groups:   replicate [1]
   postlife replicate
   <fct>    <fct>    
 1 YES      1        
 2 YES      1        
 3 YES      1        
 4 NO       1        
 5 YES      1        
 6 YES      1        
 7 YES      1        
 8 YES      1        
 9 YES      1        
10 YES      1        
# ... with 140 more rows
```
…
