…
**Examining intervals. Reigns of kings and queens**

You can create an interval by using the operator `%--%` with two datetimes. For example `ymd("2001-01-01") %--% ymd("2001-12-31")` creates an interval for the year of 2001.

Once you have an interval you can find out certain properties like its start, end and length with [int_start()](https://www.rdocumentation.org/packages/lubridate/topics/int_start), [int_end()](https://www.rdocumentation.org/packages/lubridate/topics/int_end) and [int_length()](https://www.rdocumentation.org/packages/lubridate/topics/int_length) respectively.

Practice by exploring the reigns of kings and queens of Britain (and its historical dominions).

```
# Print monarchs
monarchs
```
```
# A tibble: 131 x 4
   name                     from                to                  dominion    
   <chr>                    <dttm>              <dttm>              <chr>       
 1 Elizabeth II             1952-02-06 00:00:00 2020-12-14 00:00:00 United King~
 2 Victoria                 1837-06-20 00:00:00 1901-01-22 00:00:00 United King~
 3 George V                 1910-05-06 00:00:00 1936-01-20 00:00:00 United King~
 4 George III               1801-01-01 00:00:00 1820-01-29 00:00:00 United King~
 5 George VI                1936-12-11 00:00:00 1952-02-06 00:00:00 United King~
 6 George IV                1820-01-29 00:00:00 1830-06-26 00:00:00 United King~
 7 Edward VII               1901-01-22 00:00:00 1910-05-06 00:00:00 United King~
 8 William IV               1830-06-26 00:00:00 1837-06-20 00:00:00 United King~
 9 Edward VIII              1936-01-20 00:00:00 1936-12-11 00:00:00 United King~
10 George III(also United ~ 1760-10-25 00:00:00 1801-01-01 00:00:00 Great Brita~
# ... with 121 more rows
```
```
# Create an interval for reign
monarchs <- monarchs %>%
  mutate(reign = from %--% to) 

# Find the length of reign, and arrange
monarchs %>%
  mutate(length = int_length(reign)) %>% 
  arrange(desc(length)) %>%
  select(name, length, dominion)
```
```
# A tibble: 131 x 3
   name                   length dominion      
   <chr>                   <dbl> <chr>         
 1 Elizabeth II       2172873600 United Kingdom
 2 Victoria           2006726400 United Kingdom
 3 James VI           1820102400 Scotland      
 4 Gruffudd ap Cynan  1767139200 Gwynedd       
 5 Edward III         1590624000 England       
 6 William I          1545868800 Scotland      
 7 Llywelyn the Great 1428796800 Gwynedd       
 8 Elizabeth I        1399507200 England       
 9 Constantine II     1356912000 Scotland      
10 David II           1316304000 Scotland      
# ... with 121 more rows
```
…
Then` ymd("2001-03-30") %within% y2001` will return `TRUE` and `ymd("2002-03-30") %within% y2001` will return `FALSE`.

[int_overlaps()](https://www.rdocumentation.org/packages/lubridate/topics/int_overlaps) performs a similar test, but will return true if two intervals overlap at all.

Practice to find out which monarchs saw Halley's comet around 1066.

```
# Print halleys
halleys
```
```
# A tibble: 27 x 6
   designation     year perihelion_date start_date end_date   distance
   <chr>          <int> <date>          <date>     <date>     <chr>   
 1 1P/66 B1, 66      66 66-01-26        66-01-25   66-01-26   <NA>    
 2 1P/141 F1, 141   141 141-03-25       141-03-22  141-03-25  <NA>    
 3 1P/218 H1, 218   218 218-04-06       218-04-06  218-05-17  <NA>    
 4 1P/295 J1, 295   295 295-04-07       295-04-07  295-04-20  <NA>    
 5 1P/374 E1, 374   374 374-02-13       374-02-13  374-02-16  0.09 AU 
 6 1P/451 L1, 451   451 451-07-03       451-06-28  451-07-03  <NA>    
 7 1P/530 Q1, 530   530 530-11-15       530-09-27  530-11-15  <NA>    
 8 1P/607 H1, 607   607 607-03-26       607-03-15  607-03-26  0.09 AU 
 9 1P/684 R1, 684   684 684-11-26       684-10-02  684-11-26  <NA>    
10 1P/760 K1, 760   760 760-06-10       760-05-20  760-06-10  <NA>    
# ... with 17 more rows
```
…
Try them out to get better representations of the length of the monarchs reigns.

```
# New columns for duration and period
monarchs <- monarchs %>%
  mutate(
    duration = as.duration(reign),
    period = as.period(reign)) 
    
# Examine results    
monarchs %>%
  select(name, duration, period)
```
```
# A tibble: 131 x 3
   name                           duration                   period             
   <chr>                          <Duration>                 <Period>           
 1 Elizabeth II                   2172873600s (~68.85 years) 68y 10m 8d 0H 0M 0S
 2 Victoria                       2006726400s (~63.59 years) 63y 7m 2d 0H 0M 0S 
 3 George V                       811296000s (~25.71 years)  25y 8m 14d 0H 0M 0S
 4 George III                     601948800s (~19.07 years)  19y 0m 28d 0H 0M 0S
 5 George VI                      478224000s (~15.15 years)  15y 1m 26d 0H 0M 0S
 6 George IV                      328406400s (~10.41 years)  10y 4m 28d 0H 0M 0S
 7 Edward VII                     292982400s (~9.28 years)   9y 3m 14d 0H 0M 0S 
 8 William IV                     220406400s (~6.98 years)   6y 11m 25d 0H 0M 0S
 9 Edward VIII                    28166400s (~46.57 weeks)   10m 21d 0H 0M 0S   
10 George III(also United Kingdo~ 1268092800s (~40.18 years) 40y 2m 7d 0H 0M 0S 
# ... with 121 more rows
```
…
